…
-   Profile 4

-   Profile 5



``` r
source(here("functions","enum_table_lpa.R"))

# Read in model
output_enum <- readModels(here("lpa", "tidyLPA"), quiet = TRUE)

# Preview with numbered rows
enum_fit(output_enum)
#> # A tibble: 29 × 12
#>      row Title     Parameters     LL   BIC  aBIC  CAIC   AWE
#>    <int> <chr>          <dbl>  <dbl> <dbl> <dbl> <dbl> <dbl>
#>  1     1 Model 1 …          8 -2089. 4227. 4201. 4235. 4300.
#>  2     2 Model 1 …         13 -1997. 4074. 4032. 4087. 4193.
#>  3     3 Model 1 …         18 -1953. 4017. 3960. 4035. 4183.
#>  4     4 Model 1 …         23 -1889. 3921. 3848. 3944. 4133.
#>  5     5 Model 1 …         28 -1871. 3915. 3826. 3943. 4172.
#>  6     6 Model 2 …          8 -2089. 4227. 4201. 4235. 4300.
#>  7     7 Model 2 …         17 -1989. 4083. 4029. 4100. 4239.
#>  8     8 Model 2 …         26 -1878. 3917. 3834. 3943. 4156.
#>  9     9 Model 2 …         35 -1851. 3919. 3808. 3954. 4241.
#> 10    10 Model 2 …         44 -1825. 3923. 3783. 3967. 4327.
#> # ℹ 19 more rows
#> # ℹ 4 more variables: BLRT_PValue <dbl>,
#> #   T11_VLMR_PValue <dbl>, BF <dbl>, cmPk <dbl>
…
